vivado/.Xil/Vivado-2227-noodle-box/hw_ila_data_1/zip_work/waveform.vcd
$date
        2021-Mar-12 10:39:59
$end
$version
        Vivado v2018.3 (64-bit)
$end
$timescale
        1ps
$end
$scope module dut $end
$var reg 32 " us_sensor_0_i/after_echo_count_ff [31:0] $end
$var reg 1 B object_det_OBUF $end
$var reg 1 C _TRIGGER $end
$var reg 1 D _WINDOW $end
$var reg 1 E _GAP $end
$upscope $end
$enddefinitions $end
#0
$dumpvars
b1010000010001100110 "
0B
0C
1D
0E
$end
#1
b1010000010001100111 "
#2
b1010000010001101000 "
#3
b1010000010001101001 "
#4
b1010000010001101010 "
#5
b1010000010001101011 "
#6
b1010000010001101100 "
#7
b1010000010001101101 "
#8
b1010000010001101110 "
#9
b1010000010001101111 "
#10
b1010000010001110000 "
#11
b1010000010001110001 "
#12
b1010000010001110010 "
#13
b1010000010001110011 "
#14
b1010000010001110100 "
#15
b1010000010001110101 "
#16
b1010000010001110110 "
#17
b1010000010001110111 "
#18
b1010000010001111000 "
#19
b1010000010001111001 "
#20
b1010000010001111010 "
#21
b1010000010001111011 "
#22
b1010000010001111100 "
#23
b1010000010001111101 "
#24
b1010000010001111110 "
#25
b1010000010001111111 "
#26
b1010000010010000000 "
#27
b1010000010010000001 "
#28
b1010000010010000010 "
#29
b1010000010010000011 "
#30
b1010000010010000100 "
#31
b1010000010010000101 "
#32
b1010000010010000110 "
#33
b1010000010010000111 "
#34
b1010000010010001000 "
#35
b1010000010010001001 "
#36
b1010000010010001010 "
#37
b1010000010010001011 "
#38
b1010000010010001100 "
#39
b1010000010010001101 "
#40
b1010000010010001110 "
#41
b1010000010010001111 "
#42
b1010000010010010000 "
#43
b1010000010010010001 "
#44
b1010000010010010010 "
#45
b1010000010010010011 "
#46
b1010000010010010100 "
#47
b1010000010010010101 "
#48
b1010000010010010110 "
#49
b1010000010010010111 "
#50
b1010000010010011000 "
#51
b1010000010010011001 "
#52
b1010000010010011010 "
#53
b1010000010010011011 "
#54
b1010000010010011100 "
#55
b1010000010010011101 "
#56
b1010000010010011110 "
#57
b1010000010010011111 "
#58
b1010000010010100000 "
#59
b1010000010010100001 "
#60
b1010000010010100010 "
#61
b1010000010010100011 "
#62
b1010000010010100100 "
#63
b1010000010010100101 "
#64
b1010000010010100110 "
#65
b1010000010010100111 "
#66
b1010000010010101000 "
#67
b1010000010010101001 "
#68
b1010000010010101010 "
#69
b1010000010010101011 "
#70
b1010000010010101100 "
#71
b1010000010010101101 "
#72
b1010000010010101110 "
#73
b1010000010010101111 "
#74
b1010000010010110000 "
#75
b1010000010010110001 "
#76
b1010000010010110010 "
#77
b1010000010010110011 "
#78
b1010000010010110100 "
#79
b1010000010010110101 "
#80
b1010000010010110110 "
#81
b1010000010010110111 "
#82
b1010000010010111000 "
#83
b1010000010010111001 "
#84
b1010000010010111010 "
#85
b1010000010010111011 "
#86
b1010000010010111100 "
#87
b1010000010010111101 "
#88
b1010000010010111110 "
#89
b1010000010010111111 "
#90
b1010000010011000000 "
#91
b1010000010011000001 "
#92
b1010000010011000010 "
#93
b1010000010011000011 "
#94
b1010000010011000100 "
#95
b1010000010011000101 "
#96
b1010000010011000110 "
#97
b1010000010011000111 "
#98
b1010000010011001000 "
#99
b1010000010011001001 "
#100
b1010000010011001010 "
#101
b1010000010011001011 "
#102
b1010000010011001100 "
#103
b1010000010011001101 "
#104
b1010000010011001110 "
#105
b1010000010011001111 "
#106
b1010000010011010000 "
#107
b1010000010011010001 "
#108
b1010000010011010010 "
#109
b1010000010011010011 "
#110
b1010000010011010100 "
#111
b1010000010011010101 "
#112
b1010000010011010110 "
#113
b1010000010011010111 "
#114
b1010000010011011000 "
#115
b1010000010011011001 "
#116
b1010000010011011010 "
#117
b1010000010011011011 "
#118
b1010000010011011100 "
#119
b1010000010011011101 "
#120
b1010000010011011110 "
#121
b1010000010011011111 "
#122
b1010000010011100000 "
#123
b1010000010011100001 "
#124
b1010000010011100010 "
#125
b1010000010011100011 "
#126
b1010000010011100100 "
#127
b1010000010011100101 "
#128
b1010000010011100110 "
#129
b1010000010011100111 "
#130
b1010000010011101000 "
#131
b1010000010011101001 "
#132
b1010000010011101010 "
#133
b1010000010011101011 "
#134
b1010000010011101100 "
#135
b1010000010011101101 "
#136
b1010000010011101110 "
#137
b1010000010011101111 "
#138
b1010000010011110000 "
#139
b1010000010011110001 "
#140
b1010000010011110010 "
#141
b1010000010011110011 "
#142
b1010000010011110100 "
#143
b1010000010011110101 "
#144
b1010000010011110110 "
#145
b1010000010011110111 "
#146
b1010000010011111000 "
#147
b1010000010011111001 "
#148
b1010000010011111010 "
#149
b1010000010011111011 "
#150
b1010000010011111100 "
#151
b1010000010011111101 "
#152
b1010000010011111110 "
#153
b1010000010011111111 "
#154
b1010000010100000000 "
#155
b1010000010100000001 "
#156
b1010000010100000010 "
#157
b1010000010100000011 "
#158
b1010000010100000100 "
#159
b1010000010100000101 "
#160
b1010000010100000110 "
#161
b1010000010100000111 "
#162
b1010000010100001000 "
#163
b1010000010100001001 "
#164
b1010000010100001010 "
#165
b1010000010100001011 "
#166
b1010000010100001100 "
#167
b1010000010100001101 "
#168
b1010000010100001110 "
#169
b1010000010100001111 "
#170
b1010000010100010000 "
#171
b1010000010100010001 "
#172
b1010000010100010010 "
#173
b1010000010100010011 "
#174
b1010000010100010100 "
#175
b1010000010100010101 "
#176
b1010000010100010110 "
#177
b1010000010100010111 "
#178
b1010000010100011000 "
#179
b1010000010100011001 "
#180
b1010000010100011010 "
#181
b1010000010100011011 "
#182
b1010000010100011100 "
#183
b1010000010100011101 "
#184
b1010000010100011110 "
#185
b1010000010100011111 "
#186
b1010000010100100000 "
#187
b1010000010100100001 "
#188
b1010000010100100010 "
#189
b1010000010100100011 "
#190
b1010000010100100100 "
#191
b1010000010100100101 "
#192
b1010000010100100110 "
#193
b1010000010100100111 "
#194
b1010000010100101000 "
#195
b1010000010100101001 "
#196
b1010000010100101010 "
#197
b1010000010100101011 "
#198
b1010000010100101100 "
#199
b1010000010100101101 "
#200
b1010000010100101110 "
#201
b1010000010100101111 "
#202
b1010000010100110000 "
#203
b1010000010100110001 "
#204
b1010000010100110010 "
#205
b1010000010100110011 "
#206
b1010000010100110100 "
#207
b1010000010100110101 "
#208
b1010000010100110110 "
#209
b1010000010100110111 "
#210
b1010000010100111000 "
#211
b1010000010100111001 "
#212
b1010000010100111010 "
#213
b1010000010100111011 "
#214
b1010000010100111100 "
#215
b1010000010100111101 "
#216
b1010000010100111110 "
#217
b1010000010100111111 "
#218
b1010000010101000000 "
#219
b1010000010101000001 "
#220
b1010000010101000010 "
#221
b1010000010101000011 "
#222
b1010000010101000100 "
#223
b1010000010101000101 "
#224
b1010000010101000110 "
#225
b1010000010101000111 "
#226
b1010000010101001000 "
#227
b1010000010101001001 "
#228
b1010000010101001010 "
#229
b1010000010101001011 "
#230
b1010000010101001100 "
#231
b1010000010101001101 "
#232
b1010000010101001110 "
#233
b1010000010101001111 "
#234
b1010000010101010000 "
#235
b1010000010101010001 "
#236
b1010000010101010010 "
#237
b1010000010101010011 "
#238
b1010000010101010100 "
#239
b1010000010101010101 "
#240
b1010000010101010110 "
#241
b1010000010101010111 "
#242
b1010000010101011000 "
#243
b1010000010101011001 "
#244
b1010000010101011010 "
#245
b1010000010101011011 "
#246
b1010000010101011100 "
#247
b1010000010101011101 "
#248
b1010000010101011110 "
#249
b1010000010101011111 "
#250
b1010000010101100000 "
#251
b1010000010101100001 "
#252
b1010000010101100010 "
#253
b1010000010101100011 "
#254
b1010000010101100100 "
#255
b1010000010101100101 "
#256
b1010000010101100110 "
#257
b1010000010101100111 "
#258
b1010000010101101000 "
#259
b1010000010101101001 "
#260
b1010000010101101010 "
#261
b1010000010101101011 "
#262
b1010000010101101100 "
#263
b1010000010101101101 "
#264
b1010000010101101110 "
#265
b1010000010101101111 "
#266
b1010000010101110000 "
#267
b1010000010101110001 "
#268
b1010000010101110010 "
#269
b1010000010101110011 "
#270
b1010000010101110100 "
#271
b1010000010101110101 "
#272
b1010000010101110110 "
#273
b1010000010101110111 "
#274
b1010000010101111000 "
#275
b1010000010101111001 "
#276
b1010000010101111010 "
#277
b1010000010101111011 "
#278
b1010000010101111100 "
#279
b1010000010101111101 "
#280
b1010000010101111110 "
#281
b1010000010101111111 "
#282
b1010000010110000000 "
#283
b1010000010110000001 "
#284
b1010000010110000010 "
#285
b1010000010110000011 "
#286
b1010000010110000100 "
#287
b1010000010110000101 "
#288
b1010000010110000110 "
#289
b1010000010110000111 "
#290
b1010000010110001000 "
#291
b1010000010110001001 "
#292
b1010000010110001010 "
#293
b1010000010110001011 "
#294
b1010000010110001100 "
#295
b1010000010110001101 "
#296
b1010000010110001110 "
#297
b1010000010110001111 "
#298
b1010000010110010000 "
#299
b1010000010110010001 "
#300
b1010000010110010010 "
#301
b1010000010110010011 "
#302
b1010000010110010100 "
#303
b1010000010110010101 "
#304
b1010000010110010110 "
#305
b1010000010110010111 "
#306
b1010000010110011000 "
#307
b1010000010110011001 "
#308
b1010000010110011010 "
#309
b1010000010110011011 "
#310
b1010000010110011100 "
#311
b1010000010110011101 "
#312
b1010000010110011110 "
#313
b1010000010110011111 "
#314
b1010000010110100000 "
#315
b1010000010110100001 "
#316
b1010000010110100010 "
#317
b1010000010110100011 "
#318
b1010000010110100100 "
#319
b1010000010110100101 "
#320
b1010000010110100110 "
#321
b1010000010110100111 "
#322
b1010000010110101000 "
#323
b1010000010110101001 "
#324
b1010000010110101010 "
#325
b1010000010110101011 "
#326
b1010000010110101100 "
#327
b1010000010110101101 "
#328
b1010000010110101110 "
#329
b1010000010110101111 "
#330
b1010000010110110000 "
#331
b1010000010110110001 "
#332
b1010000010110110010 "
#333
b1010000010110110011 "
#334
b1010000010110110100 "
#335
b1010000010110110101 "
#336
b1010000010110110110 "
#337
b1010000010110110111 "
#338
b1010000010110111000 "
#339
b1010000010110111001 "
#340
b1010000010110111010 "
#341
b1010000010110111011 "
#342
b1010000010110111100 "
#343
b1010000010110111101 "
#344
b1010000010110111110 "
#345
b1010000010110111111 "
#346
b1010000010111000000 "
#347
b1010000010111000001 "
#348
b1010000010111000010 "
#349
b1010000010111000011 "
#350
b1010000010111000100 "
#351
b1010000010111000101 "
#352
b1010000010111000110 "
#353
b1010000010111000111 "
#354
b1010000010111001000 "
#355
b1010000010111001001 "
#356
b1010000010111001010 "
#357
b1010000010111001011 "
#358
b1010000010111001100 "
#359
b1010000010111001101 "
#360
b1010000010111001110 "
#361
b1010000010111001111 "
#362
b1010000010111010000 "
#363
b1010000010111010001 "
#364
b1010000010111010010 "
#365
b1010000010111010011 "
#366
b1010000010111010100 "
#367
b1010000010111010101 "
#368
b1010000010111010110 "
#369
b1010000010111010111 "
#370
b1010000010111011000 "
#371
b1010000010111011001 "
#372
b1010000010111011010 "
#373
b1010000010111011011 "
#374
b1010000010111011100 "
#375
b1010000010111011101 "
#376
b1010000010111011110 "
#377
b1010000010111011111 "
#378
b1010000010111100000 "
#379
b1010000010111100001 "
#380
b1010000010111100010 "
#381
b1010000010111100011 "
#382
b1010000010111100100 "
#383
b1010000010111100101 "
#384
b1010000010111100110 "
#385
b1010000010111100111 "
#386
b1010000010111101000 "
#387
b1010000010111101001 "
#388
b1010000010111101010 "
#389
b1010000010111101011 "
#390
b1010000010111101100 "
#391
b1010000010111101101 "
#392
b1010000010111101110 "
#393
b1010000010111101111 "
#394
b1010000010111110000 "
#395
b1010000010111110001 "
#396
b1010000010111110010 "
#397
b1010000010111110011 "
#398
b1010000010111110100 "
#399
b1010000010111110101 "
#400
b1010000010111110110 "
#401
b1010000010111110111 "
#402
b1010000010111111000 "
#403
b1010000010111111001 "
#404
b1010000010111111010 "
#405
b1010000010111111011 "
#406
b1010000010111111100 "
#407
b1010000010111111101 "
#408
b1010000010111111110 "
#409
b1010000010111111111 "
#410
b1010000011000000000 "
#411
b1010000011000000001 "
#412
b1010000011000000010 "
#413
b1010000011000000011 "
#414
b1010000011000000100 "
#415
b1010000011000000101 "
#416
b1010000011000000110 "
#417
b1010000011000000111 "
#418
b1010000011000001000 "
#419
b1010000011000001001 "
#420
b1010000011000001010 "
#421
b1010000011000001011 "
#422
b1010000011000001100 "
#423
b1010000011000001101 "
#424
b1010000011000001110 "
#425
b1010000011000001111 "
#426
b1010000011000010000 "
#427
b1010000011000010001 "
#428
b1010000011000010010 "
#429
b1010000011000010011 "
#430
b1010000011000010100 "
#431
b1010000011000010101 "
#432
b1010000011000010110 "
#433
b1010000011000010111 "
#434
b1010000011000011000 "
#435
b1010000011000011001 "
#436
b1010000011000011010 "
#437
b1010000011000011011 "
#438
b1010000011000011100 "
#439
b1010000011000011101 "
#440
b1010000011000011110 "
#441
b1010000011000011111 "
#442
b1010000011000100000 "
#443
b1010000011000100001 "
#444
b1010000011000100010 "
#445
b1010000011000100011 "
#446
b1010000011000100100 "
#447
b1010000011000100101 "
#448
b1010000011000100110 "
#449
b1010000011000100111 "
#450
b1010000011000101000 "
#451
b1010000011000101001 "
#452
b1010000011000101010 "
#453
b1010000011000101011 "
#454
b1010000011000101100 "
#455
b1010000011000101101 "
#456
b1010000011000101110 "
#457
b1010000011000101111 "
#458
b1010000011000110000 "
#459
b1010000011000110001 "
#460
b1010000011000110010 "
#461
b1010000011000110011 "
#462
b1010000011000110100 "
#463
b1010000011000110101 "
#464
b1010000011000110110 "
#465
b1010000011000110111 "
#466
b1010000011000111000 "
#467
b1010000011000111001 "
#468
b1010000011000111010 "
#469
b1010000011000111011 "
#470
b1010000011000111100 "
#471
b1010000011000111101 "
#472
b1010000011000111110 "
#473
b1010000011000111111 "
#474
b1010000011001000000 "
#475
b1010000011001000001 "
#476
b1010000011001000010 "
#477
b1010000011001000011 "
#478
b1010000011001000100 "
#479
b1010000011001000101 "
#480
b1010000011001000110 "
#481
b1010000011001000111 "
#482
b1010000011001001000 "
#483
b1010000011001001001 "
#484
b1010000011001001010 "
#485
b1010000011001001011 "
#486
b1010000011001001100 "
#487
b1010000011001001101 "
#488
b1010000011001001110 "
#489
b1010000011001001111 "
#490
b1010000011001010000 "
#491
b1010000011001010001 "
#492
b1010000011001010010 "
#493
b1010000011001010011 "
#494
b1010000011001010100 "
#495
b1010000011001010101 "
#496
b1010000011001010110 "
#497
b1010000011001010111 "
#498
b1010000011001011000 "
#499
b1010000011001011001 "
#500
b1010000011001011010 "
#501
b1010000011001011011 "
#502
b1010000011001011100 "
#503
b1010000011001011101 "
#504
b1010000011001011110 "
#505
b1010000011001011111 "
#506
b1010000011001100000 "
#507
b1010000011001100001 "
#508
b1010000011001100010 "
#509
b1010000011001100011 "
#510
b1010000011001100100 "
#511
b1010000011001100101 "
#512
b1010000011001100110 "
#513
b1010000011001100111 "
#514
b1010000011001101000 "
#515
b1010000011001101001 "
#516
b1010000011001101010 "
#517
b1010000011001101011 "
#518
b1010000011001101100 "
#519
b1010000011001101101 "
#520
b1010000011001101110 "
#521
b1010000011001101111 "
#522
b1010000011001110000 "
#523
b1010000011001110001 "
#524
b1010000011001110010 "
#525
b1010000011001110011 "
#526
b1010000011001110100 "
#527
b1010000011001110101 "
#528
b1010000011001110110 "
#529
b1010000011001110111 "
#530
b1010000011001111000 "
#531
b1010000011001111001 "
#532
b1010000011001111010 "
#533
b1010000011001111011 "
#534
b1010000011001111100 "
#535
b1010000011001111101 "
#536
b1010000011001111110 "
#537
b1010000011001111111 "
#538
b1010000011010000000 "
#539
b1010000011010000001 "
#540
b1010000011010000010 "
#541
b1010000011010000011 "
#542
b1010000011010000100 "
#543
b1010000011010000101 "
#544
b1010000011010000110 "
#545
b1010000011010000111 "
#546
b1010000011010001000 "
#547
b1010000011010001001 "
#548
b1010000011010001010 "
#549
b1010000011010001011 "
#550
b1010000011010001100 "
#551
b1010000011010001101 "
#552
b1010000011010001110 "
#553
b1010000011010001111 "
#554
b1010000011010010000 "
#555
b1010000011010010001 "
#556
b1010000011010010010 "
#557
b1010000011010010011 "
#558
b1010000011010010100 "
#559
b1010000011010010101 "
#560
b1010000011010010110 "
#561
b1010000011010010111 "
#562
b1010000011010011000 "
#563
b1010000011010011001 "
#564
b1010000011010011010 "
#565
b1010000011010011011 "
#566
b1010000011010011100 "
#567
b1010000011010011101 "
#568
b1010000011010011110 "
#569
b1010000011010011111 "
#570
b1010000011010100000 "
#571
b1010000011010100001 "
#572
b1010000011010100010 "
#573
b1010000011010100011 "
#574
b1010000011010100100 "
#575
b1010000011010100101 "
#576
b1010000011010100110 "
#577
b1010000011010100111 "
#578
b1010000011010101000 "
#579
b1010000011010101001 "
#580
b1010000011010101010 "
#581
b1010000011010101011 "
#582
b1010000011010101100 "
#583
b1010000011010101101 "
#584
b1010000011010101110 "
#585
b1010000011010101111 "
#586
b1010000011010110000 "
#587
b1010000011010110001 "
#588
b1010000011010110010 "
#589
b1010000011010110011 "
#590
b1010000011010110100 "
#591
b1010000011010110101 "
#592
b1010000011010110110 "
#593
b1010000011010110111 "
#594
b1010000011010111000 "
#595
b1010000011010111001 "
#596
b1010000011010111010 "
#597
b1010000011010111011 "
#598
b1010000011010111100 "
#599
b1010000011010111101 "
#600
b1010000011010111110 "
#601
b1010000011010111111 "
#602
b1010000011011000000 "
#603
b1010000011011000001 "
#604
b1010000011011000010 "
#605
b1010000011011000011 "
#606
b1010000011011000100 "
#607
b1010000011011000101 "
#608
b1010000011011000110 "
#609
b1010000011011000111 "
#610
b1010000011011001000 "
#611
b1010000011011001001 "
#612
b1010000011011001010 "
#613
b1010000011011001011 "
#614
b1010000011011001100 "
#615
b1010000011011001101 "
#616
b1010000011011001110 "
#617
b1010000011011001111 "
#618
b1010000011011010000 "
#619
b1010000011011010001 "
#620
b1010000011011010010 "
#621
b1010000011011010011 "
#622
b1010000011011010100 "
#623
b1010000011011010101 "
#624
b1010000011011010110 "
#625
b1010000011011010111 "
#626
b1010000011011011000 "
#627
b1010000011011011001 "
#628
b1010000011011011010 "
#629
b1010000011011011011 "
#630
b1010000011011011100 "
#631
b1010000011011011101 "
#632
b1010000011011011110 "
#633
b1010000011011011111 "
#634
b1010000011011100000 "
#635
b1010000011011100001 "
#636
b1010000011011100010 "
#637
b1010000011011100011 "
#638
b1010000011011100100 "
#639
b1010000011011100101 "
#640
b1010000011011100110 "
#641
b1010000011011100111 "
#642
b1010000011011101000 "
#643
b1010000011011101001 "
#644
b1010000011011101010 "
#645
b1010000011011101011 "
#646
b1010000011011101100 "
#647
b1010000011011101101 "
#648
b1010000011011101110 "
#649
b1010000011011101111 "
#650
b1010000011011110000 "
#651
b1010000011011110001 "
#652
b1010000011011110010 "
#653
b1010000011011110011 "
#654
b1010000011011110100 "
#655
b1010000011011110101 "
#656
b1010000011011110110 "
#657
b1010000011011110111 "
#658
b1010000011011111000 "
#659
b1010000011011111001 "
#660
b1010000011011111010 "
#661
b1010000011011111011 "
#662
b1010000011011111100 "
#663
b1010000011011111101 "
#664
b1010000011011111110 "
#665
b1010000011011111111 "
#666
b1010000011100000000 "
#667
b1010000011100000001 "
#668
b1010000011100000010 "
#669
b1010000011100000011 "
#670
b1010000011100000100 "
#671
b1010000011100000101 "
#672
b1010000011100000110 "
#673
b1010000011100000111 "
#674
b1010000011100001000 "
#675
b1010000011100001001 "
#676
b1010000011100001010 "
#677
b1010000011100001011 "
#678
b1010000011100001100 "
#679
b1010000011100001101 "
#680
b1010000011100001110 "
#681
b1010000011100001111 "
#682
b1010000011100010000 "
#683
b1010000011100010001 "
#684
b1010000011100010010 "
#685
b1010000011100010011 "
#686
b1010000011100010100 "
#687
b1010000011100010101 "
#688
b1010000011100010110 "
#689
b1010000011100010111 "
#690
b1010000011100011000 "
#691
b1010000011100011001 "
#692
b1010000011100011010 "
#693
b1010000011100011011 "
#694
b1010000011100011100 "
#695
b1010000011100011101 "
#696
b1010000011100011110 "
#697
b1010000011100011111 "
#698
b1010000011100100000 "
#699
b1010000011100100001 "
#700
b1010000011100100010 "
#701
b1010000011100100011 "
#702
b1010000011100100100 "
#703
b1010000011100100101 "
#704
b1010000011100100110 "
#705
b1010000011100100111 "
#706
b1010000011100101000 "
#707
b1010000011100101001 "
#708
b1010000011100101010 "
#709
b1010000011100101011 "
#710
b1010000011100101100 "
#711
b1010000011100101101 "
#712
b1010000011100101110 "
#713
b1010000011100101111 "
#714
b1010000011100110000 "
#715
b1010000011100110001 "
#716
b1010000011100110010 "
#717
b1010000011100110011 "
#718
b1010000011100110100 "
#719
b1010000011100110101 "
#720
b1010000011100110110 "
#721
b1010000011100110111 "
#722
b1010000011100111000 "
#723
b1010000011100111001 "
#724
b1010000011100111010 "
#725
b1010000011100111011 "
#726
b1010000011100111100 "
#727
b1010000011100111101 "
#728
b1010000011100111110 "
#729
b1010000011100111111 "
#730
b1010000011101000000 "
#731
b1010000011101000001 "
#732
b1010000011101000010 "
#733
b1010000011101000011 "
#734
b1010000011101000100 "
#735
b1010000011101000101 "
#736
b1010000011101000110 "
#737
b1010000011101000111 "
#738
b1010000011101001000 "
#739
b1010000011101001001 "
#740
b1010000011101001010 "
#741
b1010000011101001011 "
#742
b1010000011101001100 "
#743
b1010000011101001101 "
#744
b1010000011101001110 "
#745
b1010000011101001111 "
#746
b1010000011101010000 "
#747
b1010000011101010001 "
#748
b1010000011101010010 "
#749
b1010000011101010011 "
#750
b1010000011101010100 "
#751
b1010000011101010101 "
#752
b1010000011101010110 "
#753
b1010000011101010111 "
#754
b1010000011101011000 "
#755
b1010000011101011001 "
#756
b1010000011101011010 "
#757
b1010000011101011011 "
#758
b1010000011101011100 "
#759
b1010000011101011101 "
#760
b1010000011101011110 "
#761
b1010000011101011111 "
#762
b1010000011101100000 "
#763
b1010000011101100001 "
#764
b1010000011101100010 "
#765
b1010000011101100011 "
#766
b1010000011101100100 "
#767
b1010000011101100101 "
#768
b1010000011101100110 "
#769
b1010000011101100111 "
#770
b1010000011101101000 "
#771
b1010000011101101001 "
#772
b1010000011101101010 "
#773
b1010000011101101011 "
#774
b1010000011101101100 "
#775
b1010000011101101101 "
#776
b1010000011101101110 "
#777
b1010000011101101111 "
#778
b1010000011101110000 "
#779
b1010000011101110001 "
#780
b1010000011101110010 "
#781
b1010000011101110011 "
#782
b1010000011101110100 "
#783
b1010000011101110101 "
#784
b1010000011101110110 "
#785
b1010000011101110111 "
#786
b1010000011101111000 "
#787
b1010000011101111001 "
#788
b1010000011101111010 "
#789
b1010000011101111011 "
#790
b1010000011101111100 "
#791
b1010000011101111101 "
#792
b1010000011101111110 "
#793
b1010000011101111111 "
#794
b1010000011110000000 "
#795
b1010000011110000001 "
#796
b1010000011110000010 "
#797
b1010000011110000011 "
#798
b1010000011110000100 "
#799
b1010000011110000101 "
#800
b1010000011110000110 "
#801
b1010000011110000111 "
#802
b1010000011110001000 "
#803
b1010000011110001001 "
#804
b1010000011110001010 "
#805
b1010000011110001011 "
#806
b1010000011110001100 "
#807
b1010000011110001101 "
#808
b1010000011110001110 "
#809
b1010000011110001111 "
#810
b1010000011110010000 "
#811
b1010000011110010001 "
#812
b1010000011110010010 "
#813
b1010000011110010011 "
#814
b1010000011110010100 "
#815
b1010000011110010101 "
#816
b1010000011110010110 "
#817
b1010000011110010111 "
#818
b1010000011110011000 "
#819
b1010000011110011001 "
#820
b1010000011110011010 "
#821
b1010000011110011011 "
#822
b1010000011110011100 "
#823
b1010000011110011101 "
#824
b1010000011110011110 "
#825
b1010000011110011111 "
#826
b1010000011110100000 "
#827
b1010000011110100001 "
#828
b1010000011110100010 "
#829
b1010000011110100011 "
#830
b1010000011110100100 "
#831
b1010000011110100101 "
#832
b1010000011110100110 "
#833
b1010000011110100111 "
#834
b1010000011110101000 "
#835
b1010000011110101001 "
#836
b1010000011110101010 "
#837
b1010000011110101011 "
#838
b1010000011110101100 "
#839
b1010000011110101101 "
#840
b1010000011110101110 "
#841
b1010000011110101111 "
#842
b1010000011110110000 "
#843
b1010000011110110001 "
#844
b1010000011110110010 "
#845
b1010000011110110011 "
#846
b1010000011110110100 "
#847
b1010000011110110101 "
#848
b1010000011110110110 "
#849
b1010000011110110111 "
#850
b1010000011110111000 "
#851
b1010000011110111001 "
#852
b1010000011110111010 "
#853
b1010000011110111011 "
#854
b1010000011110111100 "
#855
b1010000011110111101 "
#856
b1010000011110111110 "
#857
b1010000011110111111 "
#858
b1010000011111000000 "
#859
b1010000011111000001 "
#860
b1010000011111000010 "
#861
b1010000011111000011 "
#862
b1010000011111000100 "
#863
b1010000011111000101 "
#864
b1010000011111000110 "
#865
b1010000011111000111 "
#866
b1010000011111001000 "
#867
b1010000011111001001 "
#868
b1010000011111001010 "
#869
b1010000011111001011 "
#870
b1010000011111001100 "
#871
b1010000011111001101 "
#872
b1010000011111001110 "
#873
b1010000011111001111 "
#874
b1010000011111010000 "
#875
b1010000011111010001 "
#876
b1010000011111010010 "
#877
b1010000011111010011 "
#878
b1010000011111010100 "
#879
b1010000011111010101 "
#880
b1010000011111010110 "
#881
b1010000011111010111 "
#882
b1010000011111011000 "
#883
b1010000011111011001 "
#884
b1010000011111011010 "
#885
b1010000011111011011 "
#886
b1010000011111011100 "
#887
b1010000011111011101 "
#888
b1010000011111011110 "
#889
b1010000011111011111 "
#890
b1010000011111100000 "
#891
b1010000011111100001 "
#892
b1010000011111100010 "
#893
b1010000011111100011 "
#894
b1010000011111100100 "
#895
b1010000011111100101 "
#896
b1010000011111100110 "
#897
b1010000011111100111 "
#898
b1010000011111101000 "
#899
b1010000011111101001 "
#900
b1010000011111101010 "
#901
b1010000011111101011 "
#902
b1010000011111101100 "
#903
b1010000011111101101 "
#904
b1010000011111101110 "
#905
b1010000011111101111 "
#906
b1010000011111110000 "
#907
b1010000011111110001 "
#908
b1010000011111110010 "
#909
b1010000011111110011 "
#910
b1010000011111110100 "
#911
b1010000011111110101 "
#912
b1010000011111110110 "
#913
b1010000011111110111 "
#914
b1010000011111111000 "
#915
b1010000011111111001 "
#916
b1010000011111111010 "
#917
b1010000011111111011 "
#918
b1010000011111111100 "
#919
b1010000011111111101 "
#920
b1010000011111111110 "
#921
b1010000011111111111 "
#922
b1010000100000000000 "
#923
b1010000100000000001 "
#924
b1010000100000000010 "
#925
b1010000100000000011 "
#926
b1010000100000000100 "
#927
b1010000100000000101 "
#928
b1010000100000000110 "
#929
b1010000100000000111 "
#930
b1010000100000001000 "
#931
b1010000100000001001 "
#932
b1010000100000001010 "
#933
b1010000100000001011 "
#934
b1010000100000001100 "
#935
b1010000100000001101 "
#936
b1010000100000001110 "
#937
b1010000100000001111 "
#938
b1010000100000010000 "
#939
b1010000100000010001 "
#940
b1010000100000010010 "
#941
b1010000100000010011 "
#942
b1010000100000010100 "
#943
b1010000100000010101 "
#944
b1010000100000010110 "
#945
b1010000100000010111 "
#946
b1010000100000011000 "
#947
b1010000100000011001 "
#948
b1010000100000011010 "
#949
b1010000100000011011 "
#950
b1010000100000011100 "
#951
b1010000100000011101 "
#952
b1010000100000011110 "
#953
b1010000100000011111 "
#954
b1010000100000100000 "
#955
b1010000100000100001 "
#956
b1010000100000100010 "
#957
b1010000100000100011 "
#958
b1010000100000100100 "
#959
b1010000100000100101 "
#960
b1010000100000100110 "
#961
b1010000100000100111 "
#962
b1010000100000101000 "
#963
b1010000100000101001 "
#964
b1010000100000101010 "
#965
b1010000100000101011 "
#966
b1010000100000101100 "
#967
b1010000100000101101 "
#968
b1010000100000101110 "
#969
b1010000100000101111 "
#970
b1010000100000110000 "
#971
b1010000100000110001 "
#972
b1010000100000110010 "
#973
b1010000100000110011 "
#974
b1010000100000110100 "
#975
b1010000100000110101 "
#976
b1010000100000110110 "
#977
b1010000100000110111 "
#978
b1010000100000111000 "
#979
b1010000100000111001 "
#980
b1010000100000111010 "
#981
b1010000100000111011 "
#982
b1010000100000111100 "
#983
b1010000100000111101 "
#984
b1010000100000111110 "
#985
b1010000100000111111 "
#986
b1010000100001000000 "
#987
b1010000100001000001 "
#988
b1010000100001000010 "
#989
b1010000100001000011 "
#990
b1010000100001000100 "
#991
b1010000100001000101 "
#992
b1010000100001000110 "
#993
b1010000100001000111 "
#994
b1010000100001001000 "
#995
b1010000100001001001 "
#996
b1010000100001001010 "
#997
b1010000100001001011 "
#998
b1010000100001001100 "
#999
b1010000100001001101 "
#1000
b1010000100001001110 "
#1001
b1010000100001001111 "
#1002
b1010000100001010000 "
#1003
b1010000100001010001 "
#1004
b1010000100001010010 "
#1005
b1010000100001010011 "
#1006
b1010000100001010100 "
#1007
b1010000100001010101 "
#1008
b1010000100001010110 "
#1009
b1010000100001010111 "
#1010
b1010000100001011000 "
#1011
b1010000100001011001 "
#1012
b1010000100001011010 "
#1013
b1010000100001011011 "
#1014
b1010000100001011100 "
#1015
b1010000100001011101 "
#1016
b1010000100001011110 "
#1017
b1010000100001011111 "
#1018
b1010000100001100000 "
#1019
b1010000100001100001 "
#1020
b1010000100001100010 "
#1021
b1010000100001100011 "
#1022
b1010000100001100100 "
#1023
b1010000100001100101 "
#1024
b1010000100001100110 "
#1025
b1010000100001100111 "
#1026
b1010000100001101000 "
#1027
b1010000100001101001 "
#1028
b1010000100001101010 "
#1029
b1010000100001101011 "
#1030
b1010000100001101100 "
#1031
b1010000100001101101 "
#1032
b1010000100001101110 "
#1033
b1010000100001101111 "
#1034
b1010000100001110000 "
#1035
b1010000100001110001 "
#1036
b1010000100001110010 "
#1037
b1010000100001110011 "
#1038
b1010000100001110100 "
#1039
b1010000100001110101 "
#1040
b1010000100001110110 "
#1041
b1010000100001110111 "
#1042
b1010000100001111000 "
#1043
b1010000100001111001 "
#1044
b1010000100001111010 "
#1045
b1010000100001111011 "
#1046
b1010000100001111100 "
#1047
b1010000100001111101 "
#1048
b1010000100001111110 "
