vivado/.Xil/Vivado-2227-noodle-box/hw_ila_data_1/zip_work/waveform.vcd
$date
        2021-Mar-12 13:06:13
$end
$version
        Vivado v2018.3 (64-bit)
$end
$timescale
        1ps
$end
$scope module dut $end
$var reg 32 " us_sensor_0_i/after_echo_count_ff [31:0] $end
$var reg 1 B object_det_OBUF $end
$var reg 1 C _TRIGGER $end
$var reg 1 D _WINDOW $end
$var reg 1 E _GAP $end
$upscope $end
$enddefinitions $end
#0
$dumpvars
b1010000111110101100 "
0B
0C
1D
0E
$end
#1
b1010000111110101101 "
#2
b1010000111110101110 "
#3
b1010000111110101111 "
#4
b1010000111110110000 "
#5
b1010000111110110001 "
#6
b1010000111110110010 "
#7
b1010000111110110011 "
#8
b1010000111110110100 "
#9
b1010000111110110101 "
#10
b1010000111110110110 "
#11
b1010000111110110111 "
#12
b1010000111110111000 "
#13
b1010000111110111001 "
#14
b1010000111110111010 "
#15
b1010000111110111011 "
#16
b1010000111110111100 "
#17
b1010000111110111101 "
#18
b1010000111110111110 "
#19
b1010000111110111111 "
#20
b1010000111111000000 "
#21
b1010000111111000001 "
#22
b1010000111111000010 "
#23
b1010000111111000011 "
#24
b1010000111111000100 "
#25
b1010000111111000101 "
#26
b1010000111111000110 "
#27
b1010000111111000111 "
#28
b1010000111111001000 "
#29
b1010000111111001001 "
#30
b1010000111111001010 "
#31
b1010000111111001011 "
#32
b1010000111111001100 "
#33
b1010000111111001101 "
#34
b1010000111111001110 "
#35
b1010000111111001111 "
#36
b1010000111111010000 "
#37
b1010000111111010001 "
#38
b1010000111111010010 "
#39
b1010000111111010011 "
#40
b1010000111111010100 "
#41
b1010000111111010101 "
#42
b1010000111111010110 "
#43
b1010000111111010111 "
#44
b1010000111111011000 "
#45
b1010000111111011001 "
#46
b1010000111111011010 "
#47
b1010000111111011011 "
#48
b1010000111111011100 "
#49
b1010000111111011101 "
#50
b1010000111111011110 "
#51
b1010000111111011111 "
#52
b1010000111111100000 "
#53
b1010000111111100001 "
#54
b1010000111111100010 "
#55
b1010000111111100011 "
#56
b1010000111111100100 "
#57
b1010000111111100101 "
#58
b1010000111111100110 "
#59
b1010000111111100111 "
#60
b1010000111111101000 "
#61
b1010000111111101001 "
#62
b1010000111111101010 "
#63
b1010000111111101011 "
#64
b1010000111111101100 "
#65
b1010000111111101101 "
#66
b1010000111111101110 "
#67
b1010000111111101111 "
#68
b1010000111111110000 "
#69
b1010000111111110001 "
#70
b1010000111111110010 "
#71
b1010000111111110011 "
#72
b1010000111111110100 "
#73
b1010000111111110101 "
#74
b1010000111111110110 "
#75
b1010000111111110111 "
#76
b1010000111111111000 "
#77
b1010000111111111001 "
#78
b1010000111111111010 "
#79
b1010000111111111011 "
#80
b1010000111111111100 "
#81
b1010000111111111101 "
#82
b1010000111111111110 "
#83
b1010000111111111111 "
#84
b1010001000000000000 "
#85
b1010001000000000001 "
#86
b1010001000000000010 "
#87
b1010001000000000011 "
#88
b1010001000000000100 "
#89
b1010001000000000101 "
#90
b1010001000000000110 "
#91
b1010001000000000111 "
#92
b1010001000000001000 "
#93
b1010001000000001001 "
#94
b1010001000000001010 "
#95
b1010001000000001011 "
#96
b1010001000000001100 "
#97
b1010001000000001101 "
#98
b1010001000000001110 "
#99
b1010001000000001111 "
#100
b1010001000000010000 "
#101
b1010001000000010001 "
#102
b1010001000000010010 "
#103
b1010001000000010011 "
#104
b1010001000000010100 "
#105
b1010001000000010101 "
#106
b1010001000000010110 "
#107
b1010001000000010111 "
#108
b1010001000000011000 "
#109
b1010001000000011001 "
#110
b1010001000000011010 "
#111
b1010001000000011011 "
#112
b1010001000000011100 "
#113
b1010001000000011101 "
#114
b1010001000000011110 "
#115
b1010001000000011111 "
#116
b1010001000000100000 "
#117
b1010001000000100001 "
#118
b1010001000000100010 "
#119
b1010001000000100011 "
#120
b1010001000000100100 "
#121
b1010001000000100101 "
#122
b1010001000000100110 "
#123
b1010001000000100111 "
#124
b1010001000000101000 "
#125
b1010001000000101001 "
#126
b1010001000000101010 "
#127
b1010001000000101011 "
#128
b1010001000000101100 "
#129
b1010001000000101101 "
#130
b1010001000000101110 "
#131
b1010001000000101111 "
#132
b1010001000000110000 "
#133
b1010001000000110001 "
#134
b1010001000000110010 "
#135
b1010001000000110011 "
#136
b1010001000000110100 "
#137
b1010001000000110101 "
#138
b1010001000000110110 "
#139
b1010001000000110111 "
#140
b1010001000000111000 "
#141
b1010001000000111001 "
#142
b1010001000000111010 "
#143
b1010001000000111011 "
#144
b1010001000000111100 "
#145
b1010001000000111101 "
#146
b1010001000000111110 "
#147
b1010001000000111111 "
#148
b1010001000001000000 "
#149
b1010001000001000001 "
#150
b1010001000001000010 "
#151
b1010001000001000011 "
#152
b1010001000001000100 "
#153
b1010001000001000101 "
#154
b1010001000001000110 "
#155
b1010001000001000111 "
#156
b1010001000001001000 "
#157
b1010001000001001001 "
#158
b1010001000001001010 "
#159
b1010001000001001011 "
#160
b1010001000001001100 "
#161
b1010001000001001101 "
#162
b1010001000001001110 "
#163
b1010001000001001111 "
#164
b1010001000001010000 "
#165
b1010001000001010001 "
#166
b1010001000001010010 "
#167
b1010001000001010011 "
#168
b1010001000001010100 "
#169
b1010001000001010101 "
#170
b1010001000001010110 "
#171
b1010001000001010111 "
#172
b1010001000001011000 "
#173
b1010001000001011001 "
#174
b1010001000001011010 "
#175
b1010001000001011011 "
#176
b1010001000001011100 "
#177
b1010001000001011101 "
#178
b1010001000001011110 "
#179
b1010001000001011111 "
#180
b1010001000001100000 "
#181
b1010001000001100001 "
#182
b1010001000001100010 "
#183
b1010001000001100011 "
#184
b1010001000001100100 "
#185
b1010001000001100101 "
#186
b1010001000001100110 "
#187
b1010001000001100111 "
#188
b1010001000001101000 "
#189
b1010001000001101001 "
#190
b1010001000001101010 "
#191
b1010001000001101011 "
#192
b1010001000001101100 "
#193
b1010001000001101101 "
#194
b1010001000001101110 "
#195
b1010001000001101111 "
#196
b1010001000001110000 "
#197
b1010001000001110001 "
#198
b1010001000001110010 "
#199
b1010001000001110011 "
#200
b1010001000001110100 "
#201
b1010001000001110101 "
#202
b1010001000001110110 "
#203
b1010001000001110111 "
#204
b1010001000001111000 "
#205
b1010001000001111001 "
#206
b1010001000001111010 "
#207
b1010001000001111011 "
#208
b1010001000001111100 "
#209
b1010001000001111101 "
#210
b1010001000001111110 "
#211
b1010001000001111111 "
#212
b1010001000010000000 "
#213
b1010001000010000001 "
#214
b1010001000010000010 "
#215
b1010001000010000011 "
#216
b1010001000010000100 "
#217
b1010001000010000101 "
#218
b1010001000010000110 "
#219
b1010001000010000111 "
#220
b1010001000010001000 "
#221
b1010001000010001001 "
#222
b1010001000010001010 "
#223
b1010001000010001011 "
#224
b1010001000010001100 "
#225
b1010001000010001101 "
#226
b1010001000010001110 "
#227
b1010001000010001111 "
#228
b1010001000010010000 "
#229
b1010001000010010001 "
#230
b1010001000010010010 "
#231
b1010001000010010011 "
#232
b1010001000010010100 "
#233
b1010001000010010101 "
#234
b1010001000010010110 "
#235
b1010001000010010111 "
#236
b1010001000010011000 "
#237
b1010001000010011001 "
#238
b1010001000010011010 "
#239
b1010001000010011011 "
#240
b1010001000010011100 "
#241
b1010001000010011101 "
#242
b1010001000010011110 "
#243
b1010001000010011111 "
#244
b1010001000010100000 "
#245
b1010001000010100001 "
#246
b1010001000010100010 "
#247
b1010001000010100011 "
#248
b1010001000010100100 "
#249
b1010001000010100101 "
#250
b1010001000010100110 "
#251
b1010001000010100111 "
#252
b1010001000010101000 "
#253
b1010001000010101001 "
#254
b1010001000010101010 "
#255
b1010001000010101011 "
#256
b1010001000010101100 "
#257
b1010001000010101101 "
#258
b1010001000010101110 "
#259
b1010001000010101111 "
#260
b1010001000010110000 "
#261
b1010001000010110001 "
#262
b1010001000010110010 "
#263
b1010001000010110011 "
#264
b1010001000010110100 "
#265
b1010001000010110101 "
#266
b1010001000010110110 "
#267
b1010001000010110111 "
#268
b1010001000010111000 "
#269
b1010001000010111001 "
#270
b1010001000010111010 "
#271
b1010001000010111011 "
#272
b1010001000010111100 "
#273
b1010001000010111101 "
#274
b1010001000010111110 "
#275
b1010001000010111111 "
#276
b1010001000011000000 "
#277
b1010001000011000001 "
#278
b1010001000011000010 "
#279
b1010001000011000011 "
#280
b1010001000011000100 "
#281
b1010001000011000101 "
#282
b1010001000011000110 "
#283
b1010001000011000111 "
#284
b1010001000011001000 "
#285
b1010001000011001001 "
#286
b1010001000011001010 "
#287
b1010001000011001011 "
#288
b1010001000011001100 "
#289
b1010001000011001101 "
#290
b1010001000011001110 "
#291
b1010001000011001111 "
#292
b1010001000011010000 "
#293
b1010001000011010001 "
#294
b1010001000011010010 "
#295
b1010001000011010011 "
#296
b1010001000011010100 "
#297
b1010001000011010101 "
#298
b1010001000011010110 "
#299
b1010001000011010111 "
#300
b1010001000011011000 "
#301
b1010001000011011001 "
#302
b1010001000011011010 "
#303
b1010001000011011011 "
#304
b1010001000011011100 "
#305
b1010001000011011101 "
#306
b1010001000011011110 "
#307
b1010001000011011111 "
#308
b1010001000011100000 "
#309
b1010001000011100001 "
#310
b1010001000011100010 "
#311
b1010001000011100011 "
#312
b1010001000011100100 "
#313
b1010001000011100101 "
#314
b1010001000011100110 "
#315
b1010001000011100111 "
#316
b1010001000011101000 "
#317
b1010001000011101001 "
#318
b1010001000011101010 "
#319
b1010001000011101011 "
#320
b1010001000011101100 "
#321
b1010001000011101101 "
#322
b1010001000011101110 "
#323
b1010001000011101111 "
#324
b1010001000011110000 "
#325
b1010001000011110001 "
#326
b1010001000011110010 "
#327
b1010001000011110011 "
#328
b1010001000011110100 "
#329
b1010001000011110101 "
#330
b1010001000011110110 "
#331
b1010001000011110111 "
#332
b1010001000011111000 "
#333
b1010001000011111001 "
#334
b1010001000011111010 "
#335
b1010001000011111011 "
#336
b1010001000011111100 "
#337
b1010001000011111101 "
#338
b1010001000011111110 "
#339
b1010001000011111111 "
#340
b1010001000100000000 "
#341
b1010001000100000001 "
#342
b1010001000100000010 "
#343
b1010001000100000011 "
#344
b1010001000100000100 "
#345
b1010001000100000101 "
#346
b1010001000100000110 "
#347
b1010001000100000111 "
#348
b1010001000100001000 "
#349
b1010001000100001001 "
#350
b1010001000100001010 "
#351
b1010001000100001011 "
#352
b1010001000100001100 "
#353
b1010001000100001101 "
#354
b1010001000100001110 "
#355
b1010001000100001111 "
#356
b1010001000100010000 "
#357
b1010001000100010001 "
#358
b1010001000100010010 "
#359
b1010001000100010011 "
#360
b1010001000100010100 "
#361
b1010001000100010101 "
#362
b1010001000100010110 "
#363
b1010001000100010111 "
#364
b1010001000100011000 "
#365
b1010001000100011001 "
#366
b1010001000100011010 "
#367
b1010001000100011011 "
#368
b1010001000100011100 "
#369
b1010001000100011101 "
#370
b1010001000100011110 "
#371
b1010001000100011111 "
#372
b1010001000100100000 "
#373
b1010001000100100001 "
#374
b1010001000100100010 "
#375
b1010001000100100011 "
#376
b1010001000100100100 "
#377
b1010001000100100101 "
#378
b1010001000100100110 "
#379
b1010001000100100111 "
#380
b1010001000100101000 "
#381
b1010001000100101001 "
#382
b1010001000100101010 "
#383
b1010001000100101011 "
#384
b1010001000100101100 "
#385
b1010001000100101101 "
#386
b1010001000100101110 "
#387
b1010001000100101111 "
#388
b1010001000100110000 "
#389
b1010001000100110001 "
#390
b1010001000100110010 "
#391
b1010001000100110011 "
#392
b1010001000100110100 "
#393
b1010001000100110101 "
#394
b1010001000100110110 "
#395
b1010001000100110111 "
#396
b1010001000100111000 "
#397
b1010001000100111001 "
#398
b1010001000100111010 "
#399
b1010001000100111011 "
#400
b1010001000100111100 "
#401
b1010001000100111101 "
#402
b1010001000100111110 "
#403
b1010001000100111111 "
#404
b1010001000101000000 "
#405
b1010001000101000001 "
#406
b1010001000101000010 "
#407
b1010001000101000011 "
#408
b1010001000101000100 "
#409
b1010001000101000101 "
#410
b1010001000101000110 "
#411
b1010001000101000111 "
#412
b1010001000101001000 "
#413
b1010001000101001001 "
#414
b1010001000101001010 "
#415
b1010001000101001011 "
#416
b1010001000101001100 "
#417
b1010001000101001101 "
#418
b1010001000101001110 "
#419
b1010001000101001111 "
#420
b1010001000101010000 "
#421
b1010001000101010001 "
#422
b1010001000101010010 "
#423
b1010001000101010011 "
#424
b1010001000101010100 "
#425
b1010001000101010101 "
#426
b1010001000101010110 "
#427
b1010001000101010111 "
#428
b1010001000101011000 "
#429
b1010001000101011001 "
#430
b1010001000101011010 "
#431
b1010001000101011011 "
#432
b1010001000101011100 "
#433
b1010001000101011101 "
#434
b1010001000101011110 "
#435
b1010001000101011111 "
#436
b1010001000101100000 "
#437
b1010001000101100001 "
#438
b1010001000101100010 "
#439
b1010001000101100011 "
#440
b1010001000101100100 "
#441
b1010001000101100101 "
#442
b1010001000101100110 "
#443
b1010001000101100111 "
#444
b1010001000101101000 "
#445
b1010001000101101001 "
#446
b1010001000101101010 "
#447
b1010001000101101011 "
#448
b1010001000101101100 "
#449
b1010001000101101101 "
#450
b1010001000101101110 "
#451
b1010001000101101111 "
#452
b1010001000101110000 "
#453
b1010001000101110001 "
#454
b1010001000101110010 "
#455
b1010001000101110011 "
#456
b1010001000101110100 "
#457
b1010001000101110101 "
#458
b1010001000101110110 "
#459
b1010001000101110111 "
#460
b1010001000101111000 "
#461
b1010001000101111001 "
#462
b1010001000101111010 "
#463
b1010001000101111011 "
#464
b1010001000101111100 "
#465
b1010001000101111101 "
#466
b1010001000101111110 "
#467
b1010001000101111111 "
#468
b1010001000110000000 "
#469
b1010001000110000001 "
#470
b1010001000110000010 "
#471
b1010001000110000011 "
#472
b1010001000110000100 "
#473
b1010001000110000101 "
#474
b1010001000110000110 "
#475
b1010001000110000111 "
#476
b1010001000110001000 "
#477
b1010001000110001001 "
#478
b1010001000110001010 "
#479
b1010001000110001011 "
#480
b1010001000110001100 "
#481
b1010001000110001101 "
#482
b1010001000110001110 "
#483
b1010001000110001111 "
#484
b1010001000110010000 "
#485
b1010001000110010001 "
#486
b1010001000110010010 "
#487
b1010001000110010011 "
#488
b1010001000110010100 "
#489
b1010001000110010101 "
#490
b1010001000110010110 "
#491
b1010001000110010111 "
#492
b1010001000110011000 "
#493
b1010001000110011001 "
#494
b1010001000110011010 "
#495
b1010001000110011011 "
#496
b1010001000110011100 "
#497
b1010001000110011101 "
#498
b1010001000110011110 "
#499
b1010001000110011111 "
#500
b1010001000110100000 "
#501
b1010001000110100001 "
#502
b1010001000110100010 "
#503
b1010001000110100011 "
#504
b1010001000110100100 "
#505
b1010001000110100101 "
#506
b1010001000110100110 "
#507
b1010001000110100111 "
#508
b1010001000110101000 "
#509
b1010001000110101001 "
#510
b1010001000110101010 "
#511
b1010001000110101011 "
#512
b1010001000110101100 "
#513
b1010001000110101101 "
#514
b1010001000110101110 "
#515
b1010001000110101111 "
#516
b1010001000110110000 "
#517
b1010001000110110001 "
#518
b1010001000110110010 "
#519
b1010001000110110011 "
#520
b1010001000110110100 "
#521
b1010001000110110101 "
#522
b1010001000110110110 "
#523
b1010001000110110111 "
#524
b1010001000110111000 "
#525
b1010001000110111001 "
#526
b1010001000110111010 "
#527
b1010001000110111011 "
#528
b1010001000110111100 "
#529
b1010001000110111101 "
#530
b1010001000110111110 "
#531
b1010001000110111111 "
#532
b1010001000111000000 "
#533
b1010001000111000001 "
#534
b1010001000111000010 "
#535
b1010001000111000011 "
#536
b1010001000111000100 "
#537
b1010001000111000101 "
#538
b1010001000111000110 "
#539
b1010001000111000111 "
#540
b1010001000111001000 "
#541
b1010001000111001001 "
#542
b1010001000111001010 "
#543
b1010001000111001011 "
#544
b1010001000111001100 "
#545
b1010001000111001101 "
#546
b1010001000111001110 "
#547
b1010001000111001111 "
#548
b1010001000111010000 "
#549
b1010001000111010001 "
#550
b1010001000111010010 "
#551
b1010001000111010011 "
#552
b1010001000111010100 "
#553
b1010001000111010101 "
#554
b1010001000111010110 "
#555
b1010001000111010111 "
#556
b1010001000111011000 "
#557
b1010001000111011001 "
#558
b1010001000111011010 "
#559
b1010001000111011011 "
#560
b1010001000111011100 "
#561
b1010001000111011101 "
#562
b1010001000111011110 "
#563
b1010001000111011111 "
#564
b1010001000111100000 "
#565
b1010001000111100001 "
#566
b1010001000111100010 "
#567
b1010001000111100011 "
#568
b1010001000111100100 "
#569
b1010001000111100101 "
#570
b1010001000111100110 "
#571
b1010001000111100111 "
#572
b1010001000111101000 "
#573
b1010001000111101001 "
#574
b1010001000111101010 "
#575
b1010001000111101011 "
#576
b1010001000111101100 "
#577
b1010001000111101101 "
#578
b1010001000111101110 "
#579
b1010001000111101111 "
#580
b1010001000111110000 "
#581
b1010001000111110001 "
#582
b1010001000111110010 "
#583
b1010001000111110011 "
#584
b1010001000111110100 "
#585
b1010001000111110101 "
#586
b1010001000111110110 "
#587
b1010001000111110111 "
#588
b1010001000111111000 "
#589
b1010001000111111001 "
#590
b1010001000111111010 "
#591
b1010001000111111011 "
#592
b1010001000111111100 "
#593
b1010001000111111101 "
#594
b1010001000111111110 "
#595
b1010001000111111111 "
#596
b1010001001000000000 "
#597
b1010001001000000001 "
#598
b1010001001000000010 "
#599
b1010001001000000011 "
#600
b1010001001000000100 "
#601
b1010001001000000101 "
#602
b1010001001000000110 "
#603
b1010001001000000111 "
#604
b1010001001000001000 "
#605
b1010001001000001001 "
#606
b1010001001000001010 "
#607
b1010001001000001011 "
#608
b1010001001000001100 "
#609
b1010001001000001101 "
#610
b1010001001000001110 "
#611
b1010001001000001111 "
#612
b1010001001000010000 "
#613
b1010001001000010001 "
#614
b1010001001000010010 "
#615
b1010001001000010011 "
#616
b1010001001000010100 "
#617
b1010001001000010101 "
#618
b1010001001000010110 "
#619
b1010001001000010111 "
#620
b1010001001000011000 "
#621
b1010001001000011001 "
#622
b1010001001000011010 "
#623
b1010001001000011011 "
#624
b1010001001000011100 "
#625
b1010001001000011101 "
#626
b1010001001000011110 "
#627
b1010001001000011111 "
#628
b1010001001000100000 "
#629
b1010001001000100001 "
#630
b1010001001000100010 "
#631
b1010001001000100011 "
#632
b1010001001000100100 "
#633
b1010001001000100101 "
#634
b1010001001000100110 "
#635
b1010001001000100111 "
#636
b1010001001000101000 "
#637
b1010001001000101001 "
#638
b1010001001000101010 "
#639
b1010001001000101011 "
#640
b1010001001000101100 "
#641
b1010001001000101101 "
#642
b1010001001000101110 "
#643
b1010001001000101111 "
#644
b1010001001000110000 "
#645
b1010001001000110001 "
#646
b1010001001000110010 "
#647
b1010001001000110011 "
#648
b1010001001000110100 "
#649
b1010001001000110101 "
#650
b1010001001000110110 "
#651
b1010001001000110111 "
#652
b1010001001000111000 "
#653
b1010001001000111001 "
#654
b1010001001000111010 "
#655
b1010001001000111011 "
#656
b1010001001000111100 "
#657
b1010001001000111101 "
#658
b1010001001000111110 "
#659
b1010001001000111111 "
#660
b1010001001001000000 "
#661
b1010001001001000001 "
#662
b1010001001001000010 "
#663
b1010001001001000011 "
#664
b1010001001001000100 "
#665
b1010001001001000101 "
#666
b1010001001001000110 "
#667
b1010001001001000111 "
#668
b1010001001001001000 "
#669
b1010001001001001001 "
#670
b1010001001001001010 "
#671
b1010001001001001011 "
#672
b1010001001001001100 "
#673
b1010001001001001101 "
#674
b1010001001001001110 "
#675
b1010001001001001111 "
#676
b1010001001001010000 "
#677
b1010001001001010001 "
#678
b1010001001001010010 "
#679
b1010001001001010011 "
#680
b1010001001001010100 "
#681
b1010001001001010101 "
#682
b1010001001001010110 "
#683
b1010001001001010111 "
#684
b1010001001001011000 "
#685
b1010001001001011001 "
#686
b1010001001001011010 "
#687
b1010001001001011011 "
#688
b1010001001001011100 "
#689
b1010001001001011101 "
#690
b1010001001001011110 "
#691
b1010001001001011111 "
#692
b1010001001001100000 "
#693
b1010001001001100001 "
#694
b1010001001001100010 "
#695
b1010001001001100011 "
#696
b1010001001001100100 "
#697
b1010001001001100101 "
#698
b1010001001001100110 "
#699
b1010001001001100111 "
#700
b1010001001001101000 "
#701
b1010001001001101001 "
#702
b1010001001001101010 "
#703
b1010001001001101011 "
#704
b1010001001001101100 "
#705
b1010001001001101101 "
#706
b1010001001001101110 "
#707
b1010001001001101111 "
#708
b1010001001001110000 "
#709
b1010001001001110001 "
#710
b1010001001001110010 "
#711
b1010001001001110011 "
#712
b1010001001001110100 "
#713
b1010001001001110101 "
#714
b1010001001001110110 "
#715
b1010001001001110111 "
#716
b1010001001001111000 "
#717
b1010001001001111001 "
#718
b1010001001001111010 "
#719
b1010001001001111011 "
#720
b1010001001001111100 "
#721
b1010001001001111101 "
#722
b1010001001001111110 "
#723
b1010001001001111111 "
#724
b1010001001010000000 "
#725
b1010001001010000001 "
#726
b1010001001010000010 "
#727
b1010001001010000011 "
#728
b1010001001010000100 "
#729
b1010001001010000101 "
#730
b1010001001010000110 "
#731
b1010001001010000111 "
#732
b1010001001010001000 "
#733
b1010001001010001001 "
#734
b1010001001010001010 "
#735
b1010001001010001011 "
#736
b1010001001010001100 "
#737
b1010001001010001101 "
#738
b1010001001010001110 "
#739
b1010001001010001111 "
#740
b1010001001010010000 "
#741
b1010001001010010001 "
#742
b1010001001010010010 "
#743
b1010001001010010011 "
#744
b1010001001010010100 "
#745
b1010001001010010101 "
#746
b1010001001010010110 "
#747
b1010001001010010111 "
#748
b1010001001010011000 "
#749
b1010001001010011001 "
#750
b1010001001010011010 "
#751
b1010001001010011011 "
#752
b1010001001010011100 "
#753
b1010001001010011101 "
#754
b1010001001010011110 "
#755
b1010001001010011111 "
#756
b1010001001010100000 "
#757
b1010001001010100001 "
#758
b1010001001010100010 "
#759
b1010001001010100011 "
#760
b1010001001010100100 "
#761
b1010001001010100101 "
#762
b1010001001010100110 "
#763
b1010001001010100111 "
#764
b1010001001010101000 "
#765
b1010001001010101001 "
#766
b1010001001010101010 "
#767
b1010001001010101011 "
#768
b1010001001010101100 "
#769
b1010001001010101101 "
#770
b1010001001010101110 "
#771
b1010001001010101111 "
#772
b1010001001010110000 "
#773
b1010001001010110001 "
#774
b1010001001010110010 "
#775
b1010001001010110011 "
#776
b1010001001010110100 "
#777
b1010001001010110101 "
#778
b1010001001010110110 "
#779
b1010001001010110111 "
#780
b1010001001010111000 "
#781
b1010001001010111001 "
#782
b1010001001010111010 "
#783
b1010001001010111011 "
#784
b1010001001010111100 "
#785
b1010001001010111101 "
#786
b1010001001010111110 "
#787
b1010001001010111111 "
#788
b1010001001011000000 "
#789
b1010001001011000001 "
#790
b1010001001011000010 "
#791
b1010001001011000011 "
#792
b1010001001011000100 "
#793
b1010001001011000101 "
#794
b1010001001011000110 "
#795
b1010001001011000111 "
#796
b1010001001011001000 "
#797
b1010001001011001001 "
#798
b1010001001011001010 "
#799
b1010001001011001011 "
#800
b1010001001011001100 "
#801
b1010001001011001101 "
#802
b1010001001011001110 "
#803
b1010001001011001111 "
#804
b1010001001011010000 "
#805
b1010001001011010001 "
#806
b1010001001011010010 "
#807
b1010001001011010011 "
#808
b1010001001011010100 "
#809
b1010001001011010101 "
#810
b1010001001011010110 "
#811
b1010001001011010111 "
#812
b1010001001011011000 "
#813
b1010001001011011001 "
#814
b1010001001011011010 "
#815
b1010001001011011011 "
#816
b1010001001011011100 "
#817
b1010001001011011101 "
#818
b1010001001011011110 "
#819
b1010001001011011111 "
#820
b1010001001011100000 "
#821
b1010001001011100001 "
#822
b1010001001011100010 "
#823
b1010001001011100011 "
#824
b1010001001011100100 "
#825
b1010001001011100101 "
#826
b1010001001011100110 "
#827
b1010001001011100111 "
#828
b1010001001011101000 "
#829
b1010001001011101001 "
#830
b1010001001011101010 "
#831
b1010001001011101011 "
#832
b1010001001011101100 "
#833
b1010001001011101101 "
#834
b1010001001011101110 "
#835
b1010001001011101111 "
#836
b1010001001011110000 "
#837
b1010001001011110001 "
#838
b1010001001011110010 "
#839
b1010001001011110011 "
#840
b1010001001011110100 "
#841
b1010001001011110101 "
#842
b1010001001011110110 "
#843
b1010001001011110111 "
#844
b1010001001011111000 "
#845
b1010001001011111001 "
#846
b1010001001011111010 "
#847
b1010001001011111011 "
#848
b1010001001011111100 "
#849
b1010001001011111101 "
#850
b1010001001011111110 "
#851
b1010001001011111111 "
#852
b1010001001100000000 "
#853
b1010001001100000001 "
#854
b1010001001100000010 "
#855
b1010001001100000011 "
#856
b1010001001100000100 "
#857
b1010001001100000101 "
#858
b1010001001100000110 "
#859
b1010001001100000111 "
#860
b1010001001100001000 "
#861
b1010001001100001001 "
#862
b1010001001100001010 "
#863
b1010001001100001011 "
#864
b1010001001100001100 "
#865
b1010001001100001101 "
#866
b1010001001100001110 "
#867
b1010001001100001111 "
#868
b1010001001100010000 "
#869
b1010001001100010001 "
#870
b1010001001100010010 "
#871
b1010001001100010011 "
#872
b1010001001100010100 "
#873
b1010001001100010101 "
#874
b1010001001100010110 "
#875
b1010001001100010111 "
#876
b1010001001100011000 "
#877
b1010001001100011001 "
#878
b1010001001100011010 "
#879
b1010001001100011011 "
#880
b1010001001100011100 "
#881
b1010001001100011101 "
#882
b1010001001100011110 "
#883
b1010001001100011111 "
#884
b1010001001100100000 "
#885
b1010001001100100001 "
#886
b1010001001100100010 "
#887
b1010001001100100011 "
#888
b1010001001100100100 "
#889
b1010001001100100101 "
#890
b1010001001100100110 "
#891
b1010001001100100111 "
#892
b1010001001100101000 "
#893
b1010001001100101001 "
#894
b1010001001100101010 "
#895
b1010001001100101011 "
#896
b1010001001100101100 "
#897
b1010001001100101101 "
#898
b1010001001100101110 "
#899
b1010001001100101111 "
#900
b1010001001100110000 "
#901
b1010001001100110001 "
#902
b1010001001100110010 "
#903
b1010001001100110011 "
#904
b1010001001100110100 "
#905
b1010001001100110101 "
#906
b1010001001100110110 "
#907
b1010001001100110111 "
#908
b1010001001100111000 "
#909
b1010001001100111001 "
#910
b1010001001100111010 "
#911
b1010001001100111011 "
#912
b1010001001100111100 "
#913
b1010001001100111101 "
#914
b1010001001100111110 "
#915
b1010001001100111111 "
#916
b1010001001101000000 "
#917
b1010001001101000001 "
#918
b1010001001101000010 "
#919
b1010001001101000011 "
#920
b1010001001101000100 "
#921
b1010001001101000101 "
#922
b1010001001101000110 "
#923
b1010001001101000111 "
#924
b1010001001101001000 "
#925
b1010001001101001001 "
#926
b1010001001101001010 "
#927
b1010001001101001011 "
#928
b1010001001101001100 "
#929
b1010001001101001101 "
#930
b1010001001101001110 "
#931
b1010001001101001111 "
#932
b1010001001101010000 "
#933
b1010001001101010001 "
#934
b1010001001101010010 "
#935
b1010001001101010011 "
#936
b1010001001101010100 "
#937
b1010001001101010101 "
#938
b1010001001101010110 "
#939
b1010001001101010111 "
#940
b1010001001101011000 "
#941
b1010001001101011001 "
#942
b1010001001101011010 "
#943
b1010001001101011011 "
#944
b1010001001101011100 "
#945
b1010001001101011101 "
#946
b1010001001101011110 "
#947
b1010001001101011111 "
#948
b1010001001101100000 "
#949
b1010001001101100001 "
#950
b1010001001101100010 "
#951
b1010001001101100011 "
#952
b1010001001101100100 "
#953
b1010001001101100101 "
#954
b1010001001101100110 "
#955
b1010001001101100111 "
#956
b1010001001101101000 "
#957
b1010001001101101001 "
#958
b1010001001101101010 "
#959
b1010001001101101011 "
#960
b1010001001101101100 "
#961
b1010001001101101101 "
#962
b1010001001101101110 "
#963
b1010001001101101111 "
#964
b1010001001101110000 "
#965
b1010001001101110001 "
#966
b1010001001101110010 "
#967
b1010001001101110011 "
#968
b1010001001101110100 "
#969
b1010001001101110101 "
#970
b1010001001101110110 "
#971
b1010001001101110111 "
#972
b1010001001101111000 "
#973
b1010001001101111001 "
#974
b1010001001101111010 "
#975
b1010001001101111011 "
#976
b1010001001101111100 "
#977
b1010001001101111101 "
#978
b1010001001101111110 "
#979
b1010001001101111111 "
#980
b1010001001110000000 "
#981
b1010001001110000001 "
#982
b1010001001110000010 "
#983
b1010001001110000011 "
#984
b1010001001110000100 "
#985
b1010001001110000101 "
#986
b1010001001110000110 "
#987
b1010001001110000111 "
#988
b1010001001110001000 "
#989
b1010001001110001001 "
#990
b1010001001110001010 "
#991
b1010001001110001011 "
#992
b1010001001110001100 "
#993
b1010001001110001101 "
#994
b1010001001110001110 "
#995
b1010001001110001111 "
#996
b1010001001110010000 "
#997
b1010001001110010001 "
#998
b1010001001110010010 "
#999
b1010001001110010011 "
#1000
b1010001001110010100 "
#1001
b1010001001110010101 "
#1002
b1010001001110010110 "
#1003
b1010001001110010111 "
#1004
b1010001001110011000 "
#1005
b1010001001110011001 "
#1006
b1010001001110011010 "
#1007
b1010001001110011011 "
#1008
b1010001001110011100 "
#1009
b1010001001110011101 "
#1010
b1010001001110011110 "
#1011
b1010001001110011111 "
#1012
b1010001001110100000 "
#1013
b1010001001110100001 "
#1014
b1010001001110100010 "
#1015
b1010001001110100011 "
#1016
b1010001001110100100 "
#1017
b1010001001110100101 "
#1018
b1010001001110100110 "
#1019
b1010001001110100111 "
#1020
b1010001001110101000 "
#1021
b1010001001110101001 "
#1022
b1010001001110101010 "
#1023
b1010001001110101011 "
#1024
b1010001001110101100 "
#1025
b1010001001110101101 "
#1026
b1010001001110101110 "
#1027
b1010001001110101111 "
#1028
b1010001001110110000 "
#1029
b1010001001110110001 "
#1030
b1010001001110110010 "
#1031
b1010001001110110011 "
#1032
b1010001001110110100 "
#1033
b1010001001110110101 "
#1034
b1010001001110110110 "
#1035
b1010001001110110111 "
#1036
b1010001001110111000 "
#1037
b1010001001110111001 "
#1038
b1010001001110111010 "
#1039
b1010001001110111011 "
#1040
b1010001001110111100 "
#1041
b1010001001110111101 "
#1042
b1010001001110111110 "
#1043
b1010001001110111111 "
#1044
b1010001001111000000 "
#1045
b1010001001111000001 "
#1046
b1010001001111000010 "
#1047
b1010001001111000011 "
#1048
b1010001001111000100 "
